{
  "prepare_queue": {
    "installed": [],
    "uninstalled": []
  },
  "config_munge": {
    "files": {}
  },
  "installed_plugins": {
    "cordova-plugin-apprate": {
      "PACKAGE_NAME": "com.orgnal.qr"
    },
    "cordova-plugin-device": {
      "PACKAGE_NAME": "com.orgnal.qr"
    },
    "cordova-plugin-fcm-with-dependecy-updated": {
      "PACKAGE_NAME": "com.orgnal.qr"
    },
    "cordova-plugin-ionic-keyboard": {
      "PACKAGE_NAME": "com.orgnal.qr"
    },
    "cordova-plugin-ionic-webview": {
      "ANDROID_SUPPORT_ANNOTATIONS_VERSION": "27.+",
      "PACKAGE_NAME": "com.orgnal.qr"
    },
    "cordova-plugin-splashscreen": {
      "PACKAGE_NAME": "com.orgnal.qr"
    },
    "cordova-plugin-statusbar": {
      "PACKAGE_NAME": "com.orgnal.qr"
    },
    "cordova-plugin-vibration": {
      "PACKAGE_NAME": "com.orgnal.qr"
    },
    "cordova-plugin-whitelist": {
      "PACKAGE_NAME": "com.orgnal.qr"
    },
    "cordova-plugin-x-socialsharing": {
      "ANDROID_SUPPORT_V4_VERSION": "24.1.1+",
      "PACKAGE_NAME": "com.orgnal.qr"
    },
    "phonegap-plugin-barcodescanner": {
      "ANDROID_SUPPORT_V4_VERSION": "27.+",
      "PACKAGE_NAME": "com.orgnal.qr"
    }
  },
  "dependent_plugins": {
    "cordova-plugin-dialogs": {
      "PACKAGE_NAME": "com.orgnal.qr"
    },
    "cordova-plugin-globalization": {
      "PACKAGE_NAME": "com.orgnal.qr"
    },
    "cordova-plugin-inappbrowser": {
      "PACKAGE_NAME": "com.orgnal.qr"
    },
    "cordova-plugin-nativestorage": {
      "PACKAGE_NAME": "com.orgnal.qr"
    },
    "es6-promise-plugin": {
      "PACKAGE_NAME": "com.orgnal.qr"
    }
  }
}
